INSERT INTO `Product` (`type`, `option_name`, `option_value`, `price`, `stock`, `code`, `language`) VALUES
('Download', 'Bestandstype', 'JPG', 0.10, 999, '1', 'NL'),
('Download', 'Bestandstype', 'PNG', 0.25, 999, '2', 'NL'),
('Download', 'File type', 'JPG', 0.10, 999, '1', 'EN'),
('Download', 'File type', 'PNG', 0.25, 999, '2', 'EN'),
('Foto', 'Grootte', '10x15', 0.75, 537, '3', 'NL'),
('Foto', 'Grootte', '11x15', 1.00, 50, '4', 'NL'),
('Foto', 'Grootte', '13x18', 1.25, 50, '5', 'NL'),
('Foto', 'Grootte', '13x19', 1.50, 35, '6', 'NL'),
('Foto', 'Grootte', '9x13', 0.50, 25, '7', 'NL'),
('Foto', 'OriŽntatie', 'Liggend', 0.00, 999, '8', 'NL'),
('Foto', 'OriŽntatie', 'Staand', 0.00, 999, '9', 'NL'),
('Image', 'Size', '10x15', 0.75, 537, '3', 'EN'),
('Image', 'Size', '11x15', 1.00, 50, '4', 'EN'),
('Image', 'Size', '13x18', 1.25, 50, '5', 'EN'),
('Image', 'Size', '13x19', 1.50, 35, '6', 'EN'),
('Image', 'Size', '9x13', 0.50, 25, '7', 'EN'),
('Image', 'Orientation', 'Landscape', 0.00, 999, '8', 'EN'),
('Image', 'Orientation', 'Portrait', 0.00, 999, '9', 'EN'),
('Mok', 'Kleur', 'Rood', 4.99, 25, '10', 'NL'),
('Mok', 'Kleur', 'Geel', 4.99, 18, '11', 'NL'),
('Mok', 'Kleur', 'Groen', 4.99, 25, '12', 'NL'),
('Mok', 'Kleur', 'Zwart', 4.99, 24, '13', 'NL'),
('Mok', 'Kleur', 'Wit', 4.99, 50, '14', 'NL'),
('Mug', 'Color', 'Red', 4.99, 25, '10', 'EN'),
('Mug', 'Color', 'Yellow', 4.99, 18, '11', 'EN'),
('Mug', 'Color', 'Green', 4.99, 25, '12', 'EN'),
('Mug', 'Color', 'Black', 4.99, 24, '13', 'EN'),
('Mug', 'Color', 'White', 4.99, 50, '14', 'EN'),
('Muismat', 'Grootte', 'Klein', 3.50, 67, '15', 'NL'),
('Muismat', 'Grootte', 'Groot', 6.50, 25, '16', 'NL'),
('Mousepad', 'Size', 'Small', 3.50, 67, '15', 'EN'),
('Mousepad', 'Size', 'Big', 6.50, 25, '16', 'EN'),
('Shirt', 'Geslacht', 'Man', 0.00, 100, '17', 'NL'),
('Shirt', 'Geslacht', 'Vrouw', 0.00, 100, '18', 'NL'),
('Shirt', 'Maat', 'S', 15.00, 25, '19', 'NL'),
('Shirt', 'Maat', 'M', 15.00, 25, '20', 'NL'),
('Shirt', 'Maat', 'L', 15.00, 25, '21', 'NL'),
('Shirt', 'Maat', 'XL', 16.00, 25, '22', 'NL'),
('Shirt', 'Kleur', 'Wit', 1.00, 60, '23', 'NL'),
('Shirt', 'Kleur', 'Zwart', 2.50, 40, '24', 'NL'),
('Shirt', 'Sex', 'Man', 0.00, 100, '17', 'EN'),
('Shirt', 'Sex', 'Woman', 0.00, 100, '18', 'EN'),
('Shirt', 'Size', 'S', 15.00, 25, '19', 'EN'),
('Shirt', 'Size', 'M', 15.00, 25, '20', 'EN'),
('Shirt', 'Size', 'L', 15.00, 25, '21', 'EN'),
('Shirt', 'Size', 'XL', 16.00, 25, '22', 'EN'),
('Shirt', 'Color', 'White', 1.00, 60, '23', 'EN'),
('Shirt', 'Color', 'Black', 2.50, 40, '24', 'EN');